{
  "profiles": {
    "BuildTool": {
      "commandName": "Project",
      "commandLineArgs": "dusk_and_dawn.xml debug \"_dst_{Platform}_{Configuration}\" \"_temp_{Platform}_{Configuration}\"",
      "workingDirectory": "C:\\Users\\gidch\\Desktop\\IvyProductions\\dusk_and_dawn"
    }
  }
}